module mars

go 1.17

require (
	github.com/golang/mock v1.6.0
	github.com/stretchr/testify v1.7.1
	golang.org/x/sync v0.0.0-20210220032951-036812b2e83c
)

require (
	github.com/davecgh/go-spew v1.1.0 // indirect
	github.com/pmezard/go-difflib v1.0.0 // indirect
	gopkg.in/yaml.v3 v3.0.0-20200313102051-9f266ea9e77c // indirect
)
